Retrieve tibble with function documentation for a specified package — forgot • forgot
…
formatted
boolean should it coerce columns to char, true by default

interactive
optional boolean to get a reactable HTML table

    Value

    tibble with function documentation info

    Examples

forgot::forgot("stringr")
#> # A tibble: 37 × 13
#>    function_name title    usage desc  value author examples name  aliases params
#>    <chr>         <chr>    <chr> <chr> <chr> <chr>  <chr>    <chr> <chr>   <chr> 
#>  1 case          Convert… "\ns… "\n\… "\nA… chara… "\ndog … case  "c(\"c… "c(\"…
#>  2 invert_match  Switch … "\ni… "\nI… "\nn… chara… "\nnumb… inve… "NULL"  "loc …
#>  3 modifiers     Control… "\nf… "\nM… "\nA… chara… "\npatt… modi… "c(\"m… "c(\"…
#>  4 %>%           Pipe op… "\nl… "\nP… "NUL… chara… "NULL"   %>%   "NULL"  "NULL"
#>  5 str_c         Join mu… "\ns… "\n\… "\nI… chara… "\nstr_… str_c "NULL"  "c(\"…
#>  6 str_conv      Specify… "\ns… "\nT… "NUL… chara… "\n# Ex… str_… "NULL"  "c(\"…
#>  7 str_count     Count n… "\ns… "\nC… "\nA… chara… "\nfrui… str_… "NULL"  "c(\"…
#>  8 str_detect    Detect … "\ns… "\n\… "\nA… chara… "\nfrui… str_… "NULL"  "c(\"…
#>  9 str_dup       Duplica… "\ns… "\n\… "\nA… chara… "\nfrui… str_… "NULL"  "c(\"…
#> 10 str_equal     Determi… "\ns… "\nT… "\nA… chara… "\n# Th… str_… "NULL"  "c(\"…
#> # ℹ 27 more rows
#> # ℹ 3 more variables: keywords <chr>, seealso <chr>, format <chr>
…
